-- Merging decision tree log ---
manifest
ADDED from /Users/Artsi/AndroidStudioProjects/RSSreader2/app/src/main/AndroidManifest.xml:2:1-31:12
	package
		ADDED from /Users/Artsi/AndroidStudioProjects/RSSreader2/app/src/main/AndroidManifest.xml:3:5-43
		INJECTED from /Users/Artsi/AndroidStudioProjects/RSSreader2/app/src/main/AndroidManifest.xml
		INJECTED from /Users/Artsi/AndroidStudioProjects/RSSreader2/app/src/main/AndroidManifest.xml
	android:versionName
		INJECTED from /Users/Artsi/AndroidStudioProjects/RSSreader2/app/src/main/AndroidManifest.xml
		INJECTED from /Users/Artsi/AndroidStudioProjects/RSSreader2/app/src/main/AndroidManifest.xml
	xmlns:android
		ADDED from /Users/Artsi/AndroidStudioProjects/RSSreader2/app/src/main/AndroidManifest.xml:2:11-69
	android:versionCode
		INJECTED from /Users/Artsi/AndroidStudioProjects/RSSreader2/app/src/main/AndroidManifest.xml
		INJECTED from /Users/Artsi/AndroidStudioProjects/RSSreader2/app/src/main/AndroidManifest.xml
uses-permission#android.permission.INTERNET
ADDED from /Users/Artsi/AndroidStudioProjects/RSSreader2/app/src/main/AndroidManifest.xml:5:5-67
	android:name
		ADDED from /Users/Artsi/AndroidStudioProjects/RSSreader2/app/src/main/AndroidManifest.xml:5:22-64
application
ADDED from /Users/Artsi/AndroidStudioProjects/RSSreader2/app/src/main/AndroidManifest.xml:7:5-29:19
MERGED from [com.android.support:appcompat-v7:23.0.1] /Users/Artsi/AndroidStudioProjects/RSSreader2/app/build/intermediates/exploded-aar/com.android.support/appcompat-v7/23.0.1/AndroidManifest.xml:22:5-20
MERGED from [com.android.support:support-v4:23.0.1] /Users/Artsi/AndroidStudioProjects/RSSreader2/app/build/intermediates/exploded-aar/com.android.support/support-v4/23.0.1/AndroidManifest.xml:22:5-20
	android:label
		ADDED from /Users/Artsi/AndroidStudioProjects/RSSreader2/app/src/main/AndroidManifest.xml:10:9-41
	android:allowBackup
		ADDED from /Users/Artsi/AndroidStudioProjects/RSSreader2/app/src/main/AndroidManifest.xml:8:9-35
	android:icon
		ADDED from /Users/Artsi/AndroidStudioProjects/RSSreader2/app/src/main/AndroidManifest.xml:9:9-37
	android:theme
		ADDED from /Users/Artsi/AndroidStudioProjects/RSSreader2/app/src/main/AndroidManifest.xml:11:9-40
activity#com.example.artsi.rssreader2.MainActivity
ADDED from /Users/Artsi/AndroidStudioProjects/RSSreader2/app/src/main/AndroidManifest.xml:13:9-21:20
	android:label
		ADDED from /Users/Artsi/AndroidStudioProjects/RSSreader2/app/src/main/AndroidManifest.xml:15:13-45
	android:name
		ADDED from /Users/Artsi/AndroidStudioProjects/RSSreader2/app/src/main/AndroidManifest.xml:14:13-41
intent-filter#android.intent.action.MAIN+android.intent.category.LAUNCHER
ADDED from /Users/Artsi/AndroidStudioProjects/RSSreader2/app/src/main/AndroidManifest.xml:16:13-20:29
action#android.intent.action.MAIN
ADDED from /Users/Artsi/AndroidStudioProjects/RSSreader2/app/src/main/AndroidManifest.xml:17:17-69
	android:name
		ADDED from /Users/Artsi/AndroidStudioProjects/RSSreader2/app/src/main/AndroidManifest.xml:17:25-66
category#android.intent.category.LAUNCHER
ADDED from /Users/Artsi/AndroidStudioProjects/RSSreader2/app/src/main/AndroidManifest.xml:19:17-77
	android:name
		ADDED from /Users/Artsi/AndroidStudioProjects/RSSreader2/app/src/main/AndroidManifest.xml:19:27-74
activity#com.example.artsi.rssreader2.PostViewActivity
ADDED from /Users/Artsi/AndroidStudioProjects/RSSreader2/app/src/main/AndroidManifest.xml:22:9-28:20
	android:label
		ADDED from /Users/Artsi/AndroidStudioProjects/RSSreader2/app/src/main/AndroidManifest.xml:24:13-50
	android:name
		ADDED from /Users/Artsi/AndroidStudioProjects/RSSreader2/app/src/main/AndroidManifest.xml:23:13-73
intent-filter#android.intent.action.MAIN
ADDED from /Users/Artsi/AndroidStudioProjects/RSSreader2/app/src/main/AndroidManifest.xml:25:13-27:29
uses-sdk
INJECTED from /Users/Artsi/AndroidStudioProjects/RSSreader2/app/src/main/AndroidManifest.xml reason: use-sdk injection requested
MERGED from [com.android.support:appcompat-v7:23.0.1] /Users/Artsi/AndroidStudioProjects/RSSreader2/app/build/intermediates/exploded-aar/com.android.support/appcompat-v7/23.0.1/AndroidManifest.xml:20:5-43
MERGED from [com.android.support:support-v4:23.0.1] /Users/Artsi/AndroidStudioProjects/RSSreader2/app/build/intermediates/exploded-aar/com.android.support/support-v4/23.0.1/AndroidManifest.xml:20:5-43
	android:targetSdkVersion
		INJECTED from /Users/Artsi/AndroidStudioProjects/RSSreader2/app/src/main/AndroidManifest.xml
		INJECTED from /Users/Artsi/AndroidStudioProjects/RSSreader2/app/src/main/AndroidManifest.xml
	android:minSdkVersion
		INJECTED from /Users/Artsi/AndroidStudioProjects/RSSreader2/app/src/main/AndroidManifest.xml
		INJECTED from /Users/Artsi/AndroidStudioProjects/RSSreader2/app/src/main/AndroidManifest.xml
